\relax 
\providecommand\hyper@newdestlabel[2]{}
\providecommand\HyperFirstAtBeginDocument{\AtBeginDocument}
\HyperFirstAtBeginDocument{\ifx\hyper@anchor\@undefined
\global\let\oldcontentsline\contentsline
\gdef\contentsline#1#2#3#4{\oldcontentsline{#1}{#2}{#3}}
\global\let\oldnewlabel\newlabel
\gdef\newlabel#1#2{\newlabelxx{#1}#2}
\gdef\newlabelxx#1#2#3#4#5#6{\oldnewlabel{#1}{{#2}{#3}}}
\AtEndDocument{\ifx\hyper@anchor\@undefined
\let\contentsline\oldcontentsline
\let\newlabel\oldnewlabel
\fi}
\fi}
\global\let\hyper@last\relax 
\gdef\HyperFirstAtBeginDocument#1{#1}
\providecommand\HyField@AuxAddToFields[1]{}
\providecommand\HyField@AuxAddToCoFields[2]{}
\@writefile{toc}{\contentsline {part}{I\hspace  {1em}HPCC Systems}{3}{part.1}}
\@writefile{toc}{\contentsline {section}{\numberline {1}Struktura systemu}{3}{section.1.1}}
\@writefile{lof}{\contentsline {figure}{\numberline {1}{\ignorespaces Uproszczona struktura systemu HPCC}}{3}{figure.1}}
\newlabel{hpcc:basic}{{1}{3}{Uproszczona struktura systemu HPCC}{figure.1}{}}
\@writefile{toc}{\contentsline {section}{\numberline {2}Thor}{4}{section.1.2}}
\@writefile{toc}{\contentsline {section}{\numberline {3}ROXIE}{4}{section.1.3}}
\@writefile{toc}{\contentsline {section}{\numberline {4}ECL}{4}{section.1.4}}
\@writefile{toc}{\contentsline {section}{\numberline {5}Oprogramowanie po\IeC {\'s}rednicz\IeC {\k a}ce}{5}{section.1.5}}
\@writefile{toc}{\contentsline {subsection}{\numberline {5.1}Dali}{5}{subsection.1.5.1}}
\@writefile{toc}{\contentsline {subsection}{\numberline {5.2}Sasha}{5}{subsection.1.5.2}}
\@writefile{lof}{\contentsline {figure}{\numberline {2}{\ignorespaces Uproszczona struktura systemu HPCC}}{6}{figure.2}}
\newlabel{hpcc:extended}{{2}{6}{Uproszczona struktura systemu HPCC}{figure.2}{}}
\@writefile{toc}{\contentsline {subsection}{\numberline {5.3}DFU}{7}{subsection.1.5.3}}
\@writefile{toc}{\contentsline {subsection}{\numberline {5.4}Serwer ECL}{7}{subsection.1.5.4}}
\@writefile{toc}{\contentsline {subsection}{\numberline {5.5}Serwer ESP}{7}{subsection.1.5.5}}
\newlabel{subsub:EclWatch}{{5.5}{7}{Serwer ESP}{subsection.1.5.5}{}}
\@writefile{toc}{\contentsline {section}{\numberline {6}Instalacja i uruchamianie systemu}{7}{section.1.6}}
\@writefile{lof}{\contentsline {figure}{\numberline {3}{\ignorespaces Procedura uruchomieniowa platformy HPCC}}{8}{figure.3}}
\newlabel{hpcc:started_console}{{3}{8}{Procedura uruchomieniowa platformy HPCC}{figure.3}{}}
\@writefile{toc}{\contentsline {subsection}{\numberline {6.1}Instalacja r\IeC {\k e}czna}{8}{subsection.1.6.1}}
\newlabel{sub:manualInst}{{6.1}{8}{Instalacja ręczna}{subsection.1.6.1}{}}
\@writefile{toc}{\contentsline {subsection}{\numberline {6.2}Maszyna wirtualna}{8}{subsection.1.6.2}}
\@writefile{lof}{\contentsline {figure}{\numberline {4}{\ignorespaces Uruchomiona maszyna wirtualna z platform\IeC {\k a} HPCC}}{9}{figure.4}}
\newlabel{hpcc:started_vm}{{4}{9}{Uruchomiona maszyna wirtualna z platformą HPCC}{figure.4}{}}
\@writefile{lof}{\contentsline {figure}{\numberline {5}{\ignorespaces Zak\IeC {\l }adki narz\IeC {\k e}dzia ECL Watch}}{9}{figure.5}}
\@writefile{toc}{\contentsline {subsection}{\numberline {6.3}ECL Watch}{9}{subsection.1.6.3}}
\newlabel{sub:ECLWatch}{{6.3}{9}{ECL Watch}{subsection.1.6.3}{}}
\@writefile{lof}{\contentsline {figure}{\numberline {6}{\ignorespaces Umiejscowienie funkcji przesy\IeC {\l }ania plik\IeC {\'o}w.}}{10}{figure.6}}
\@writefile{lof}{\contentsline {figure}{\numberline {7}{\ignorespaces Widok z wyborem ustawie\IeC {\'n} rozpraszania plik\IeC {\'o}w.}}{10}{figure.7}}
\@writefile{lof}{\contentsline {figure}{\numberline {8}{\ignorespaces Wyb\IeC {\'o}r serwera z poziomu ECL IDE}}{11}{figure.8}}
\@writefile{toc}{\contentsline {subsection}{\numberline {6.4}ECL IDE}{11}{subsection.1.6.4}}
\newlabel{sub:ECLIDE}{{6.4}{11}{ECL IDE}{subsection.1.6.4}{}}
\citation{HPCC3}
\@writefile{lof}{\contentsline {figure}{\numberline {9}{\ignorespaces Widok okna g\IeC {\l }\IeC {\'o}wnego ECL IDE}}{12}{figure.9}}
\@writefile{toc}{\contentsline {part}{II\hspace  {1em}Oracle Warehouse Builder i Oracle Data Integrator}{13}{part.2}}
\@writefile{toc}{\contentsline {section}{\numberline {1}Oracle Warehouse Builder}{13}{section.2.1}}
\@writefile{toc}{\contentsline {subsection}{\numberline {1.1}Wprowadzenie}{13}{subsection.2.1.1}}
\@writefile{toc}{\contentsline {subsubsection}{\numberline {1.1.1}Og\IeC {\'o}lne informacje}{13}{subsubsection.2.1.1.1}}
\@writefile{toc}{\contentsline {subsubsection}{\numberline {1.1.2}Om\IeC {\'o}wienie poj\IeC {\k e}\IeC {\'c}}{13}{subsubsection.2.1.1.2}}
\@writefile{lof}{\contentsline {figure}{\numberline {10}{\ignorespaces Komponenty platformy Oracle Warehouse Builder}}{14}{figure.10}}
\newlabel{owb:schema}{{10}{14}{Komponenty platformy Oracle Warehouse Builder}{figure.10}{}}
\@writefile{toc}{\contentsline {subsection}{\numberline {1.2}Instalacja}{14}{subsection.2.1.2}}
\@writefile{toc}{\contentsline {subsubsection}{\numberline {1.2.1}Instalacja na skonfigurowanej bazie danych Oracle Database 11.2}{14}{subsubsection.2.1.2.1}}
\@writefile{toc}{\contentsline {subsubsection}{\numberline {1.2.2}Instalacja r\IeC {\k e}czna}{14}{subsubsection.2.1.2.2}}
\@writefile{toc}{\contentsline {subsection}{\numberline {1.3}\IeC {\'S}rodowisko}{14}{subsection.2.1.3}}
\@writefile{toc}{\contentsline {section}{\numberline {2}Oracle Data Integrator}{14}{section.2.2}}
\@writefile{toc}{\contentsline {subsection}{\numberline {2.1}Wprowadzenie}{14}{subsection.2.2.1}}
\@writefile{toc}{\contentsline {subsubsection}{\numberline {2.1.1}Og\IeC {\'o}lne informacje}{14}{subsubsection.2.2.1.1}}
\@writefile{toc}{\contentsline {subsubsection}{\numberline {2.1.2}Architektura systemu}{15}{subsubsection.2.2.1.2}}
\@writefile{lof}{\contentsline {figure}{\numberline {11}{\ignorespaces Architektura systemu Oracle Data Integrator}}{15}{figure.11}}
\newlabel{odi:architecture}{{11}{15}{Architektura systemu Oracle Data Integrator}{figure.11}{}}
\@writefile{toc}{\contentsline {subsubsection}{\numberline {2.1.3}Repozytorium}{15}{subsubsection.2.2.1.3}}
\@writefile{toc}{\contentsline {subsection}{\numberline {2.2}Instalacja}{16}{subsection.2.2.2}}
\@writefile{toc}{\contentsline {subsubsection}{\numberline {2.2.1}Maszyna wirtualna}{16}{subsubsection.2.2.2.1}}
\@writefile{toc}{\contentsline {subsubsection}{\numberline {2.2.2}Instalacja r\IeC {\k e}czna}{16}{subsubsection.2.2.2.2}}
\@writefile{toc}{\contentsline {paragraph}{Rdze\IeC {\'n} programu}{16}{subsubsection.2.2.2.2}}
\@writefile{toc}{\contentsline {paragraph}{Baza danych}{17}{subsubsection.2.2.2.2}}
\@writefile{lof}{\contentsline {figure}{\numberline {12}{\ignorespaces Listing instalacji bazy danych}}{17}{figure.12}}
\newlabel{odi:installation}{{12}{17}{Listing instalacji bazy danych}{figure.12}{}}
\@writefile{toc}{\contentsline {paragraph}{Utworzenie repozytorium}{18}{lstnumber.-12.1}}
\@writefile{lof}{\contentsline {figure}{\numberline {13}{\ignorespaces Kreator tworzenia nowego repozytorium -- po\IeC {\l }\IeC {\k a}czenie z baz\IeC {\k a} danych}}{18}{figure.13}}
\newlabel{odi:repository}{{13}{18}{Kreator tworzenia nowego repozytorium -- połączenie z bazą danych}{figure.13}{}}
\@writefile{toc}{\contentsline {subsection}{\numberline {2.3}\IeC {\'S}rodowisko}{18}{subsection.2.2.3}}
\@writefile{toc}{\contentsline {subsubsection}{\numberline {2.3.1}Oracle Data Integrator (ODI Studio)}{18}{subsubsection.2.2.3.1}}
\@writefile{toc}{\contentsline {paragraph}{O \IeC {\'s}rodowisku}{18}{subsubsection.2.2.3.1}}
\@writefile{toc}{\contentsline {paragraph}{Skrypt uruchamiaj\IeC {\k a}cy}{19}{subsubsection.2.2.3.1}}
\@writefile{toc}{\contentsline {paragraph}{Pod\IeC {\l }\IeC {\k a}czenie do repozytorium Master}{20}{lstnumber.-15.1}}
\@writefile{lof}{\contentsline {figure}{\numberline {14}{\ignorespaces Okno po\IeC {\l }\IeC {\k a}czenia z repozytorium}}{20}{figure.14}}
\@writefile{toc}{\contentsline {paragraph}{Tworzenie nowego agenta}{21}{figure.14}}
\@writefile{toc}{\contentsline {paragraph}{Utworzenie nowej domeny dla agenta}{21}{figure.14}}
\@writefile{lof}{\contentsline {figure}{\numberline {15}{\ignorespaces Konfiguracja domeny dla po\IeC {\l }\IeC {\k a}czenia z baz\IeC {\k a} danych}}{21}{figure.15}}
\newlabel{odi:repository}{{15}{21}{Konfiguracja domeny dla połączenia z bazą danych}{figure.15}{}}
\@writefile{toc}{\contentsline {paragraph}{Interfejs u\IeC {\.z}ytkownika}{22}{figure.15}}
\@writefile{toc}{\contentsline {subsubsection}{\numberline {2.3.2}Baza danych (SQL Developer)}{22}{subsubsection.2.2.3.2}}
\@writefile{toc}{\contentsline {paragraph}{O \IeC {\'s}rodowisku}{22}{subsubsection.2.2.3.2}}
\@writefile{toc}{\contentsline {paragraph}{Uruchomienie}{22}{subsubsection.2.2.3.2}}
\@writefile{toc}{\contentsline {paragraph}{Interfejs u\IeC {\.z}ytkownika}{22}{lstnumber.-17.1}}
\@writefile{lof}{\contentsline {figure}{\numberline {16}{\ignorespaces Interfejs graficzny programu SQL Developer}}{23}{figure.16}}
\newlabel{odi:sqlgui}{{16}{23}{Interfejs graficzny programu SQL Developer}{figure.16}{}}
\@writefile{toc}{\contentsline {part}{III\hspace  {1em}Pygrametl}{23}{part.3}}
\@writefile{toc}{\contentsline {section}{\numberline {1}Wst\IeC {\k e}p}{23}{section.3.1}}
\@writefile{toc}{\contentsline {section}{\numberline {2}Instalacja i uruchamianie}{24}{section.3.2}}
\@writefile{toc}{\contentsline {subsection}{\numberline {2.1}Instalacja za pomoc\IeC {\k a} Pip}{24}{subsection.3.2.1}}
\@writefile{toc}{\contentsline {subsection}{\numberline {2.2}Instalacja za pomoc\IeC {\k a} Condy}{24}{subsection.3.2.2}}
\@writefile{toc}{\contentsline {subsection}{\numberline {2.3}Instalacja z serwisu Github}{25}{subsection.3.2.3}}
\@writefile{toc}{\contentsline {section}{\numberline {3}Om\IeC {\'o}wienie funkcjonalno\IeC {\'s}ci}{25}{section.3.3}}
\@writefile{toc}{\contentsline {subsection}{\numberline {3.1}Zarys}{25}{subsection.3.3.1}}
\newlabel{sec:pyZarys}{{3.1}{25}{Zarys}{subsection.3.3.1}{}}
\@writefile{toc}{\contentsline {subsection}{\numberline {3.2}Wspierane \IeC {\'z}r\IeC {\'o}d\IeC {\l }a danych}{25}{subsection.3.3.2}}
\@writefile{lof}{\contentsline {figure}{\numberline {17}{\ignorespaces Hierarchia dziedziczno\IeC {\'s}ci dla klas wspieraj\IeC {\k a}cych prac\IeC {\k e} z wymiarami.}}{26}{figure.17}}
\newlabel{img:pygram01}{{17}{26}{Hierarchia dziedziczności dla klas wspierających pracę z wymiarami}{figure.17}{}}
\@writefile{toc}{\contentsline {subsection}{\numberline {3.3}Wymiary}{26}{subsection.3.3.3}}
\@writefile{toc}{\contentsline {subsubsection}{\numberline {3.3.1}Hierarchia}{26}{subsubsection.3.3.3.1}}
\@writefile{toc}{\contentsline {subsubsection}{\numberline {3.3.2}Klasa Dimension}{26}{subsubsection.3.3.3.2}}
\@writefile{lol}{\contentsline {lstlisting}{./listings/example01.py}{27}{lstlisting.-21}}
\@writefile{toc}{\contentsline {subsubsection}{\numberline {3.3.3}Klasy pochodne}{27}{subsubsection.3.3.3.3}}
\@writefile{lol}{\contentsline {lstlisting}{./listings/example02.py}{27}{lstlisting.-22}}
\@writefile{lol}{\contentsline {lstlisting}{./listings/example03.py}{28}{lstlisting.-23}}
\@writefile{lol}{\contentsline {lstlisting}{./listings/example04.py}{28}{lstlisting.-24}}
\@writefile{lol}{\contentsline {lstlisting}{./listings/example05.py}{29}{lstlisting.-25}}
\@writefile{toc}{\contentsline {subsection}{\numberline {3.4}Tablice fakt\IeC {\'o}w}{29}{subsection.3.3.4}}
\@writefile{toc}{\contentsline {subsubsection}{\numberline {3.4.1}FactTable}{29}{subsubsection.3.3.4.1}}
\@writefile{lol}{\contentsline {lstlisting}{./listings/example06.py}{29}{lstlisting.-26}}
\@writefile{toc}{\contentsline {subsubsection}{\numberline {3.4.2}BatchFactTable}{30}{subsubsection.3.3.4.2}}
\@writefile{toc}{\contentsline {subsubsection}{\numberline {3.4.3}BulkFactTable}{30}{subsubsection.3.3.4.3}}
\@writefile{lol}{\contentsline {lstlisting}{./listings/example07.py}{31}{lstlisting.-27}}
\@writefile{toc}{\contentsline {part}{IV\hspace  {1em}Por\IeC {\'o}wnanie system\IeC {\'o}w}{32}{part.4}}
\@writefile{toc}{\contentsline {section}{\numberline {1}Informacje podstawowe}{32}{section.4.1}}
\@writefile{toc}{\contentsline {subsection}{\numberline {1.1}Producent oprogramowania}{32}{subsection.4.1.1}}
\@writefile{toc}{\contentsline {subsection}{\numberline {1.2}Data pierwszego wydania}{32}{subsection.4.1.2}}
\@writefile{toc}{\contentsline {subsection}{\numberline {1.3}Typ licencji}{32}{subsection.4.1.3}}
\@writefile{toc}{\contentsline {subsection}{\numberline {1.4}Platforma systemowa}{32}{subsection.4.1.4}}
\@writefile{toc}{\contentsline {subsection}{\numberline {1.5}Wymagania sprz\IeC {\k e}towe}{32}{subsection.4.1.5}}
\@writefile{toc}{\contentsline {subsection}{\numberline {1.6}Koszt}{32}{subsection.4.1.6}}
\@writefile{toc}{\contentsline {section}{\numberline {2}Zakres mo\IeC {\.z}liwo\IeC {\'s}ci}{32}{section.4.2}}
\@writefile{toc}{\contentsline {subsection}{\numberline {2.1}Rodzaj architektury}{32}{subsection.4.2.1}}
\@writefile{toc}{\contentsline {subsection}{\numberline {2.2}J\IeC {\k e}zyk skryptowania}{33}{subsection.4.2.2}}
\@writefile{toc}{\contentsline {subsection}{\numberline {2.3}Spos\IeC {\'o}b wczytywania danych}{33}{subsection.4.2.3}}
\@writefile{toc}{\contentsline {subsection}{\numberline {2.4}Praca z SZBD}{33}{subsection.4.2.4}}
\@writefile{toc}{\contentsline {subsection}{\numberline {2.5}Praca z plikami zewn\IeC {\k e}trznymi}{33}{subsection.4.2.5}}
\@writefile{toc}{\contentsline {subsection}{\numberline {2.6}Wspieranie przetwarzania r\IeC {\'o}wnoleg\IeC {\l }ego}{33}{subsection.4.2.6}}
\@writefile{toc}{\contentsline {subsection}{\numberline {2.7}Skalowalno\IeC {\'s}\IeC {\'c}}{33}{subsection.4.2.7}}
\@writefile{toc}{\contentsline {subsection}{\numberline {2.8}Mo\IeC {\.z}liwo\IeC {\'s}\IeC {\'c} monitorowania}{33}{subsection.4.2.8}}
\@writefile{toc}{\contentsline {section}{\numberline {3}Wydajno\IeC {\'s}\IeC {\'c}}{33}{section.4.3}}
\bibstyle{plain}
\bibcite{Oracle1}{1}
\bibcite{Pygram2}{2}
\bibcite{Pygram1}{3}
\bibcite{HPCC2}{4}
\bibcite{HPCC1}{5}
\bibcite{HPCC3}{6}
\bibcite{HPCC4}{7}
\bibcite{Oracle2}{8}
\bibcite{Oracle3}{9}
\bibcite{Oracle4}{10}
\@writefile{toc}{\contentsline {section}{Za\IeC {\l }\IeC {\k a}cznik}{35}{section*.1}}
\@writefile{toc}{\contentsline {section}{\numberline {A}Zawarto\IeC {\'s}\IeC {\'c} pami\IeC {\k e}ci Flash}{35}{Dodatek.1.A}}
